<svg width="100" height="14" viewBox="0 0 100 14" fill="none" xmlns="http://www.w3.org/2000/svg">
<path d="M4.4502 10.2568L7.29395 2.04688H8.72949L5.03809 12H3.87598L0.191406 2.04688H1.62012L4.4502 10.2568ZM11.2451 12H9.98047V4.60352H11.2451V12ZM9.87793 2.6416C9.87793 2.43652 9.93945 2.26335 10.0625 2.12207C10.1901 1.98079 10.377 1.91016 10.623 1.91016C10.8691 1.91016 11.056 1.98079 11.1836 2.12207C11.3112 2.26335 11.375 2.43652 11.375 2.6416C11.375 2.84668 11.3112 3.01758 11.1836 3.1543C11.056 3.29102 10.8691 3.35938 10.623 3.35938C10.377 3.35938 10.1901 3.29102 10.0625 3.1543C9.93945 3.01758 9.87793 2.84668 9.87793 2.6416ZM16.3447 12.1367C15.3421 12.1367 14.5264 11.8086 13.8975 11.1523C13.2686 10.4915 12.9541 9.6097 12.9541 8.50684V8.27441C12.9541 7.54069 13.0931 6.88672 13.3711 6.3125C13.6536 5.73372 14.0456 5.28255 14.5469 4.95898C15.0527 4.63086 15.5996 4.4668 16.1875 4.4668C17.1491 4.4668 17.8965 4.78353 18.4297 5.41699C18.9629 6.05046 19.2295 6.95736 19.2295 8.1377V8.66406H14.2188C14.237 9.39323 14.4489 9.9834 14.8545 10.4346C15.2646 10.8812 15.7842 11.1045 16.4131 11.1045C16.8597 11.1045 17.238 11.0133 17.5479 10.8311C17.8577 10.6488 18.1289 10.4072 18.3613 10.1064L19.1338 10.708C18.514 11.6605 17.5843 12.1367 16.3447 12.1367ZM16.1875 5.50586C15.6771 5.50586 15.2487 5.69271 14.9023 6.06641C14.556 6.43555 14.3418 6.95508 14.2598 7.625H17.9648V7.5293C17.9284 6.88672 17.7552 6.38997 17.4453 6.03906C17.1354 5.68359 16.7161 5.50586 16.1875 5.50586ZM27.248 10.2568L28.6699 4.60352H29.9346L27.7812 12H26.7559L24.958 6.39453L23.208 12H22.1826L20.0361 4.60352H21.2939L22.75 10.1406L24.4727 4.60352H25.4912L27.248 10.2568ZM34.8975 12V2.04688H37.707C38.5729 2.04688 39.3385 2.23828 40.0039 2.62109C40.6693 3.00391 41.182 3.5485 41.542 4.25488C41.9066 4.96126 42.0911 5.77246 42.0957 6.68848V7.32422C42.0957 8.26302 41.9134 9.08561 41.5488 9.79199C41.1888 10.4984 40.6715 11.0407 39.9971 11.4189C39.3271 11.7972 38.5456 11.9909 37.6523 12H34.8975ZM36.21 3.12695V10.9268H37.5908C38.6025 10.9268 39.3887 10.6123 39.9492 9.9834C40.5143 9.35449 40.7969 8.45898 40.7969 7.29688V6.71582C40.7969 5.58561 40.5303 4.70833 39.9971 4.08398C39.4684 3.45508 38.7165 3.13607 37.7412 3.12695H36.21ZM46.9561 12.1367C45.9535 12.1367 45.1377 11.8086 44.5088 11.1523C43.8799 10.4915 43.5654 9.6097 43.5654 8.50684V8.27441C43.5654 7.54069 43.7044 6.88672 43.9824 6.3125C44.265 5.73372 44.6569 5.28255 45.1582 4.95898C45.6641 4.63086 46.2109 4.4668 46.7988 4.4668C47.7604 4.4668 48.5078 4.78353 49.041 5.41699C49.5742 6.05046 49.8408 6.95736 49.8408 8.1377V8.66406H44.8301C44.8483 9.39323 45.0602 9.9834 45.4658 10.4346C45.876 10.8812 46.3955 11.1045 47.0244 11.1045C47.471 11.1045 47.8493 11.0133 48.1592 10.8311C48.4691 10.6488 48.7402 10.4072 48.9727 10.1064L49.7451 10.708C49.1253 11.6605 48.1956 12.1367 46.9561 12.1367ZM46.7988 5.50586C46.2884 5.50586 45.86 5.69271 45.5137 6.06641C45.1673 6.43555 44.9531 6.95508 44.8711 7.625H48.5762V7.5293C48.5397 6.88672 48.3665 6.38997 48.0566 6.03906C47.7467 5.68359 47.3275 5.50586 46.7988 5.50586ZM53.0264 2.8125V4.60352H54.4072V5.58105H53.0264V10.168C53.0264 10.4642 53.0879 10.6875 53.2109 10.8379C53.334 10.9837 53.5436 11.0566 53.8398 11.0566C53.9857 11.0566 54.1862 11.0293 54.4414 10.9746V12C54.1087 12.0911 53.7852 12.1367 53.4707 12.1367C52.9056 12.1367 52.4795 11.9658 52.1924 11.624C51.9053 11.2822 51.7617 10.7969 51.7617 10.168V5.58105H50.415V4.60352H51.7617V2.8125H53.0264ZM60.457 12C60.3841 11.8542 60.3249 11.5944 60.2793 11.2207C59.6914 11.8314 58.9896 12.1367 58.1738 12.1367C57.4447 12.1367 56.8454 11.9316 56.376 11.5215C55.9111 11.1068 55.6787 10.5827 55.6787 9.94922C55.6787 9.17904 55.9704 8.58203 56.5537 8.1582C57.1416 7.72982 57.9665 7.51562 59.0283 7.51562H60.2588V6.93457C60.2588 6.49251 60.1266 6.1416 59.8623 5.88184C59.598 5.61751 59.2083 5.48535 58.6934 5.48535C58.2422 5.48535 57.8639 5.59928 57.5586 5.82715C57.2533 6.05501 57.1006 6.33073 57.1006 6.6543H55.8291C55.8291 6.28516 55.959 5.92969 56.2188 5.58789C56.4831 5.24154 56.8385 4.9681 57.2852 4.76758C57.7363 4.56706 58.2308 4.4668 58.7686 4.4668C59.6208 4.4668 60.2884 4.68099 60.7715 5.10938C61.2546 5.5332 61.5052 6.11882 61.5234 6.86621V10.2705C61.5234 10.9495 61.61 11.4896 61.7832 11.8906V12H60.457ZM58.3584 11.0361C58.7549 11.0361 59.1309 10.9336 59.4863 10.7285C59.8418 10.5234 60.0993 10.2568 60.2588 9.92871V8.41113H59.2676C57.7181 8.41113 56.9434 8.86458 56.9434 9.77148C56.9434 10.168 57.0755 10.4779 57.3398 10.7012C57.6042 10.9245 57.9437 11.0361 58.3584 11.0361ZM64.8799 12H63.6152V4.60352H64.8799V12ZM63.5127 2.6416C63.5127 2.43652 63.5742 2.26335 63.6973 2.12207C63.8249 1.98079 64.0117 1.91016 64.2578 1.91016C64.5039 1.91016 64.6908 1.98079 64.8184 2.12207C64.946 2.26335 65.0098 2.43652 65.0098 2.6416C65.0098 2.84668 64.946 3.01758 64.8184 3.1543C64.6908 3.29102 64.5039 3.35938 64.2578 3.35938C64.0117 3.35938 63.8249 3.29102 63.6973 3.1543C63.5742 3.01758 63.5127 2.84668 63.5127 2.6416ZM68.2842 12H67.0195V1.5H68.2842V12ZM74.6211 10.0381C74.6211 9.69629 74.4912 9.43197 74.2314 9.24512C73.9762 9.05371 73.5273 8.88965 72.8848 8.75293C72.2467 8.61621 71.7386 8.45215 71.3604 8.26074C70.9867 8.06934 70.7087 7.84147 70.5264 7.57715C70.3486 7.31283 70.2598 6.99837 70.2598 6.63379C70.2598 6.02767 70.515 5.51497 71.0254 5.0957C71.5404 4.67643 72.1966 4.4668 72.9941 4.4668C73.8327 4.4668 74.5117 4.68327 75.0312 5.11621C75.5553 5.54915 75.8174 6.10286 75.8174 6.77734H74.5459C74.5459 6.43099 74.3978 6.13249 74.1016 5.88184C73.8099 5.63118 73.4408 5.50586 72.9941 5.50586C72.5339 5.50586 72.1738 5.60612 71.9141 5.80664C71.6543 6.00716 71.5244 6.26921 71.5244 6.59277C71.5244 6.89811 71.6452 7.12826 71.8867 7.2832C72.1283 7.43815 72.5635 7.58626 73.1924 7.72754C73.8258 7.86882 74.3385 8.03743 74.7305 8.2334C75.1224 8.42936 75.4118 8.66634 75.5986 8.94434C75.79 9.21777 75.8857 9.55273 75.8857 9.94922C75.8857 10.61 75.6214 11.141 75.0928 11.542C74.5641 11.9385 73.8783 12.1367 73.0352 12.1367C72.4427 12.1367 71.9186 12.0319 71.4629 11.8223C71.0072 11.6126 70.6494 11.321 70.3896 10.9473C70.1344 10.569 70.0068 10.1611 70.0068 9.72363H71.2715C71.2943 10.1475 71.4629 10.4847 71.7773 10.7354C72.0964 10.9814 72.5156 11.1045 73.0352 11.1045C73.5137 11.1045 73.8965 11.0088 74.1836 10.8174C74.4753 10.6214 74.6211 10.3617 74.6211 10.0381Z" fill="white"/>
<path d="M94 2L99 7L94 12" stroke="white"/>
</svg>
